module gitlab.com/jhes/go-skeleton

require (
	github.com/go-sql-driver/mysql v1.4.1 // indirect
	github.com/jinzhu/gorm v1.9.2
	github.com/jinzhu/inflection v0.0.0-20180308033659-04140366298a // indirect
	github.com/labstack/echo/v4 v4.0.0
)
